﻿\SOLINPT.EXE|SHA512|BA3D7F88452F4D9D605E26202174CDE224BB1CA53AC929082A232403760A29A723A659571F0F2A2929E491393F6727CB6531BC4507AD9EEEA95CF04F650324FF
\SOLMSCO1.ATR|SHA512|DFF2A78BA3A1FF29DE0CBF6C471AE29EDC61CEB265BDE3122490BA8193B163539DE09727E2CC85A44E4BCEDAA03F2A7D0B2B1A5B0A735DFB471DBA93B03A2F24
\SOLMSCO1.SCR|SHA512|42944D98C44F218CA08373A1E615C53E24F8E90D4A8D0F3F9BBD71037B28C32DDFDA7AFAC2623AEC2548918BB152901CF6EC7506167571936A4D8DB85873A17D
\SOLMSCO2.ATR|SHA512|E3FB2F411C1081C247CC28A12A5F9038004039FDE88025671A989D3316CDBE9D159C9C149D6FE61A260FE661A86FF3071E57670594B95DF139FE5FE7CA1E6676
\SOLMSCO2.SCR|SHA512|1AD250ED426B0B80B938EA83A253C12C678C44060B1FE3FD9CE873BC8BF28B9336E825B2E3CE83886F83CB38D411D371983F45A95DB9135BBE8530C207E2B4DF
\SOLMSCO3.ATR|SHA512|D072905E48032D8672499347F30522EC840BBFCBEDD1A77C079042E2DBEF55FA6B6EE6510DACF569CDCF85B84300E4E23469E66D69D2CF4629247344170942E6
\SOLMSCO3.SCR|SHA512|C41C862FB16B0B1B4CBCCEE5F384128F25537CD4A2A2C9BB6653A77949A8E46BD805F8D516C8733290D2CD8920AF50522949727394639F58E6F2673AE9026E08