﻿COERTC.DAT|SHA512|36CBE767C066C2F804EA022AD90D11EA96C1B85CAEAA16B573DF7CBCA4118B68087BF5AF22E6A56E9CF016EE42580681026E6BDFE97BF61AFEF9CF326030AABD
COEYLD.DAT|SHA512|E63F6196280C413B92AA4D4D39C60CFAF4BC3361EB1EA34AD712CB208E561C3CDC868225BABC9D8526F9121253BE78F530B6F7A7903366134481FC9858FEF162
CONCOF.DAT|SHA512|63B63FC1FD36CE9774BDC953EEF1E1742F1F72071919AEDFF6862A06A34CD717B4E8EB3715B7657A85A7CC1CFB9BE946E395C4EF152A8BF40D16BA7AE435FE45
GASLIN.DAT|SHA512|F751BE80364E5553B445B125FB2611E51CC12F0D2EBA915C6B394FB4F3AC0BA569AB570B0870649CEC4966B144F6604F23667B2E243B9E7CF1D4FE0B7F9C3FFB
GOHVGO.DAT|SHA512|28839224319436A69774F53925BFE9C063E5CDE03B903698ED45FEAD06B1BEB1E7F3E2E9511A9EFDA2845A95965960EB76EFD652AE5582A9743376CC4A49578D
GONGLO.DAT|SHA512|9FE93C3A48F7F5BBDD5282242D6B768CD1A8D863C743BE306CF5B4657145D1C041CB66D893D6DAB7C28183F42B7F28887DEDEF377F2E65D99FF2E4063CBD305A
GONSCF.DAT|SHA512|38D2134F1CB011949976AC36E0E588F21BFB7B46983187608BFC5608054023E16B6D573C3FF3A61B303E3D0ABCCCD0A361BC3BED2E0A12B96BEE5C346C2A371E
GONSKE.DAT|SHA512|28839224319436A69774F53925BFE9C063E5CDE03B903698ED45FEAD06B1BEB1E7F3E2E9511A9EFDA2845A95965960EB76EFD652AE5582A9743376CC4A49578D
GOYCOF.DAT|SHA512|08A96E0BDBA9695D842E8B6AA215A1E3087569A39B206DC6C18A2A2822281DD22079D571A5A434E7ED959279B5F97B1477551155E89C3546CD92272AB1A50473
LIQDCP.DAT|SHA512|6BEA8AB67E722B16D06B242B24CB25612B90EA35BAB32BB642593770429F084B6AD72D819A75EB350705D113027F6DF6F84D0A8D802890457F17C3EDEFFABFFF
NAPGAS.DAT|SHA512|E7FF8C39B84582A4139AE2F5A2AA43FAFE8DB2780DD620D12B0122F947F93E2FB64A9FE5664AB5F4BD5F3470D38ED591A9784612AD6DD276597CBEDE56C750B8
NAPIN.DAT|SHA512|BD171896A6A0E78621A20622F381F9E2FC7AC5EC6B80F7D1029399377F078A6E4429A3E7DA156FC092EB7F22147AE81C9FE13F4E552D42ACFFD8B9375A6FD751
NAPNSD.DAT|SHA512|C234296DA96C7DC18092D8519B6B4A55980D3F05C2B3536A8474D273E231BF57626985366F5DBBD2A236FCBC6F1E605AFB8273C87E0FBFBA7F4CA0459D647139
NAPSTD.DAT|SHA512|1A09C96F18E7C7C85C22EDC9BBC0CF7F16B95C9CC33B5B1E8989B7A1BB18B37B297CFEDCC10263F1693CA6D1703651AFC72CB36EEC6D009E8435D91966A1EF2D
RAFNAT.DAT|SHA512|F751BE80364E5553B445B125FB2611E51CC12F0D2EBA915C6B394FB4F3AC0BA569AB570B0870649CEC4966B144F6604F23667B2E243B9E7CF1D4FE0B7F9C3FFB
SMARTCHK.CPS|SHA512|86B0B63039CD99837A0718431A0520AACA5B251CF5882165333809A4A1A612D9C395BF06E8DFEE8026B736E201232268245282174CB6A57BBA51C0F7C4AC988B
USRSOL.EXE|SHA512|4E34AAA99CFA80E65B0E9C103004543EA6D22CB7A310FE89CAC1D503FDA96E376D5B9ABF343DBF933595E97E40D10DC8396F68EA0AEFF1B3BFE8BFED66E5020D
YLD.DAT|SHA512|444BD4C02C5B1B80473A1B6C2A07CCE20A42DE44E58FE7AAB0DDE1AE1EB1937928A3A52AF7ABFCB0ED8195AD6CBDCB8BBEAF03A5412640A8C69D3272F3A77892